<?xml version="1.0" encoding="UTF-8" standalone="no"?>
<!-- Created with Inkscape (http://www.inkscape.org/) -->

<svg
   xmlns:dc="http://purl.org/dc/elements/1.1/"
   xmlns:cc="http://creativecommons.org/ns#"
   xmlns:rdf="http://www.w3.org/1999/02/22-rdf-syntax-ns#"
   xmlns:svg="http://www.w3.org/2000/svg"
   xmlns="http://www.w3.org/2000/svg"
   xmlns:sodipodi="http://sodipodi.sourceforge.net/DTD/sodipodi-0.dtd"
   xmlns:inkscape="http://www.inkscape.org/namespaces/inkscape"
   id="svg3069"
   inkscape:version="0.48.5 r10040"
   viewBox="0 0 90 370"
   version="1.1"
   sodipodi:docname="ruler2.svg"
   width="100%"
   height="100%">
  <defs
     id="defs276" />
  <sodipodi:namedview
     id="base"
     bordercolor="#666666"
     inkscape:pageshadow="2"
     inkscape:window-y="0"
     pagecolor="#ffffff"
     inkscape:zoom="2.4495113"
     inkscape:window-width="2560"
     inkscape:window-maximized="1"
     inkscape:window-x="-3"
     showgrid="true"
     borderopacity="1.0"
     inkscape:current-layer="g4024"
     inkscape:cx="61.318484"
     inkscape:cy="193.31609"
     inkscape:document-units="px"
     inkscape:guide-bbox="true"
     inkscape:window-height="1376"
     inkscape:pageopacity="0.0"
     showguides="true">
    <sodipodi:guide
       id="guide4278"
       position="591.08371,876.2584"
       orientation="0,1" />
    <inkscape:grid
       type="xygrid"
       id="grid4583"
       empspacing="5"
       visible="true"
       enabled="true"
       snapvisiblegridlinesonly="true" />
  </sodipodi:namedview>
  <g
     transform="translate(-168.55,-588.87001)"
     inkscape:groupmode="layer"
     inkscape:label="HorizontalesMilimetros Kopie"
     id="g4024"
     style="display:inline">
    <text
       xml:space="preserve"
       x="697.28198"
       y="958.87415"
       sodipodi:linespacing="125%"
       style="font-size:40px;line-height:125%;letter-spacing:0px;word-spacing:0px;fill:#000000;font-family:Sans"
       id="text4026"><tspan
         sodipodi:role="line"
         style="font-size:1px"
         x="697.28198"
         y="958.87415"
         id="tspan4028" /><tspan
         sodipodi:role="line"
         style="font-size:1px"
         x="697.28198"
         y="960.12415"
         id="tspan4030" /></text>
    <g
       transform="translate(33.856488,-233.79412)"
       id="g4296">
      <text
         xml:space="preserve"
         x="138.37419"
         y="979.83832"
         sodipodi:linespacing="125%"
         style="font-size:40px;line-height:125%;letter-spacing:0px;word-spacing:0px;fill:#000000;font-family:Sans"
         id="text4298"><tspan
           y="979.83832"
           style="font-size:14px"
           x="138.37419"
           sodipodi:role="line"
           id="tspan4300">6</tspan></text>
      <path
         d="M 222.09,1150.4 H 152.24"
         inkscape:connector-curvature="0"
         style="fill:none;stroke:#000000"
         id="path4302" />
      <path
         d="M 221.92,1185.9 H 152.05"
         inkscape:connector-curvature="0"
         style="fill:none;stroke:#000000"
         id="path4304" />
      <path
         d="M 186.66,1178.8 H 152.23"
         inkscape:connector-curvature="0"
         style="fill:none;stroke:#7b7b7b"
         id="path4306" />
      <path
         d="M 186.66,1182.3 H 152.23"
         inkscape:connector-curvature="0"
         style="fill:none;stroke:#7b7b7b"
         id="path4308" />
      <path
         d="M 186.66,1175.2 H 152.23"
         inkscape:connector-curvature="0"
         style="fill:none;stroke:#7b7b7b"
         id="path4310" />
      <path
         d="M 186.66,1171.7 H 152.23"
         inkscape:connector-curvature="0"
         style="fill:none;stroke:#7b7b7b"
         id="path4312" />
      <path
         d="M 204.38,1168.1 H 152.23"
         inkscape:connector-curvature="0"
         style="fill:none;stroke:#000000"
         id="path4314" />
      <path
         d="M 186.66,1164.6 H 152.23"
         inkscape:connector-curvature="0"
         style="fill:none;stroke:#7b7b7b"
         id="path4316" />
      <path
         d="M 186.66,1154 H 152.23"
         inkscape:connector-curvature="0"
         style="fill:none;stroke:#7b7b7b"
         id="path4318" />
      <path
         d="M 186.66,1161.1 H 152.23"
         inkscape:connector-curvature="0"
         style="fill:none;stroke:#7b7b7b"
         id="path4320" />
      <path
         d="M 186.66,1157.5 H 152.23"
         inkscape:connector-curvature="0"
         style="fill:none;stroke:#7b7b7b"
         id="path4322" />
      <path
         d="M 222.26,1115 H 152.41"
         inkscape:connector-curvature="0"
         style="fill:none;stroke:#000000"
         id="path4324" />
      <path
         d="M 222.09,1150.4 H 152.22"
         inkscape:connector-curvature="0"
         style="fill:none;stroke:#000000"
         id="path4326" />
      <path
         d="M 186.84,1143.3 H 152.41"
         inkscape:connector-curvature="0"
         style="fill:none;stroke:#7b7b7b"
         id="path4328" />
      <path
         d="M 186.84,1146.9 H 152.41"
         inkscape:connector-curvature="0"
         style="fill:none;stroke:#7b7b7b"
         id="path4330" />
      <path
         d="M 186.84,1139.8 H 152.41"
         inkscape:connector-curvature="0"
         style="fill:none;stroke:#7b7b7b"
         id="path4332" />
      <path
         d="M 186.84,1136.3 H 152.41"
         inkscape:connector-curvature="0"
         style="fill:none;stroke:#7b7b7b"
         id="path4334" />
      <path
         d="M 204.55,1132.7 H 152.4"
         inkscape:connector-curvature="0"
         style="fill:none;stroke:#000000"
         id="path4336" />
      <path
         d="M 186.84,1129.2 H 152.41"
         inkscape:connector-curvature="0"
         style="fill:none;stroke:#7b7b7b"
         id="path4338" />
      <path
         d="M 186.84,1118.5 H 152.41"
         inkscape:connector-curvature="0"
         style="fill:none;stroke:#7b7b7b"
         id="path4340" />
      <path
         d="M 186.84,1125.6 H 152.41"
         inkscape:connector-curvature="0"
         style="fill:none;stroke:#7b7b7b"
         id="path4342" />
      <path
         d="M 186.84,1122.1 H 152.41"
         inkscape:connector-curvature="0"
         style="fill:none;stroke:#7b7b7b"
         id="path4344" />
      <path
         d="M 222.26,1079.6 H 152.41"
         inkscape:connector-curvature="0"
         style="fill:none;stroke:#000000"
         id="path4346" />
      <path
         d="M 222.09,1115 H 152.22"
         inkscape:connector-curvature="0"
         style="fill:none;stroke:#000000"
         id="path4348" />
      <path
         d="M 186.84,1107.9 H 152.41"
         inkscape:connector-curvature="0"
         style="fill:none;stroke:#7b7b7b"
         id="path4350" />
      <path
         d="M 186.84,1111.4 H 152.41"
         inkscape:connector-curvature="0"
         style="fill:none;stroke:#7b7b7b"
         id="path4352" />
      <path
         d="M 186.84,1104.4 H 152.41"
         inkscape:connector-curvature="0"
         style="fill:none;stroke:#7b7b7b"
         id="path4354" />
      <path
         d="M 186.84,1100.8 H 152.41"
         inkscape:connector-curvature="0"
         style="fill:none;stroke:#7b7b7b"
         id="path4356" />
      <path
         d="M 204.55,1097.3 H 152.4"
         inkscape:connector-curvature="0"
         style="fill:none;stroke:#000000"
         id="path4358" />
      <path
         d="M 186.84,1093.7 H 152.41"
         inkscape:connector-curvature="0"
         style="fill:none;stroke:#7b7b7b"
         id="path4360" />
      <path
         d="M 186.84,1083.1 H 152.41"
         inkscape:connector-curvature="0"
         style="fill:none;stroke:#7b7b7b"
         id="path4362" />
      <path
         d="M 186.84,1090.2 H 152.41"
         inkscape:connector-curvature="0"
         style="fill:none;stroke:#7b7b7b"
         id="path4364" />
      <path
         d="M 186.84,1086.6 H 152.41"
         inkscape:connector-curvature="0"
         style="fill:none;stroke:#7b7b7b"
         id="path4366" />
      <path
         d="M 222.26,1044.1 H 152.41"
         inkscape:connector-curvature="0"
         style="fill:none;stroke:#000000"
         id="path4368" />
      <path
         d="M 222.09,1079.6 H 152.22"
         inkscape:connector-curvature="0"
         style="fill:none;stroke:#000000"
         id="path4370" />
      <path
         d="M 186.84,1072.5 H 152.41"
         inkscape:connector-curvature="0"
         style="fill:none;stroke:#7b7b7b"
         id="path4372" />
      <path
         d="M 186.84,1076 H 152.41"
         inkscape:connector-curvature="0"
         style="fill:none;stroke:#7b7b7b"
         id="path4374" />
      <path
         d="M 186.84,1068.9 H 152.41"
         inkscape:connector-curvature="0"
         style="fill:none;stroke:#7b7b7b"
         id="path4376" />
      <path
         d="M 186.84,1065.4 H 152.41"
         inkscape:connector-curvature="0"
         style="fill:none;stroke:#7b7b7b"
         id="path4378" />
      <path
         d="M 204.55,1061.8 H 152.4"
         inkscape:connector-curvature="0"
         style="fill:none;stroke:#000000"
         id="path4380" />
      <path
         d="M 186.84,1058.3 H 152.41"
         inkscape:connector-curvature="0"
         style="fill:none;stroke:#7b7b7b"
         id="path4382" />
      <path
         d="M 186.84,1047.7 H 152.41"
         inkscape:connector-curvature="0"
         style="fill:none;stroke:#7b7b7b"
         id="path4384" />
      <path
         d="M 186.84,1054.8 H 152.41"
         inkscape:connector-curvature="0"
         style="fill:none;stroke:#7b7b7b"
         id="path4386" />
      <path
         d="M 186.84,1051.2 H 152.41"
         inkscape:connector-curvature="0"
         style="fill:none;stroke:#7b7b7b"
         id="path4388" />
      <path
         d="M 222.26,1008.7 H 152.41"
         inkscape:connector-curvature="0"
         style="fill:none;stroke:#000000"
         id="path4390" />
      <path
         d="M 222.09,1044.1 H 152.22"
         inkscape:connector-curvature="0"
         style="fill:none;stroke:#000000"
         id="path4392" />
      <path
         d="M 186.84,1037 H 152.41"
         inkscape:connector-curvature="0"
         style="fill:none;stroke:#7b7b7b"
         id="path4394" />
      <path
         d="M 186.84,1040.6 H 152.41"
         inkscape:connector-curvature="0"
         style="fill:none;stroke:#7b7b7b"
         id="path4396" />
      <path
         d="M 186.84,1033.5 H 152.41"
         inkscape:connector-curvature="0"
         style="fill:none;stroke:#7b7b7b"
         id="path4398" />
      <path
         d="M 186.84,1030 H 152.41"
         inkscape:connector-curvature="0"
         style="fill:none;stroke:#7b7b7b"
         id="path4400" />
      <path
         d="M 204.55,1026.4 H 152.4"
         inkscape:connector-curvature="0"
         style="fill:none;stroke:#000000"
         id="path4402" />
      <path
         d="M 186.84,1022.9 H 152.41"
         inkscape:connector-curvature="0"
         style="fill:none;stroke:#7b7b7b"
         id="path4404" />
      <path
         d="M 186.84,1012.2 H 152.41"
         inkscape:connector-curvature="0"
         style="fill:none;stroke:#7b7b7b"
         id="path4406" />
      <path
         d="M 186.84,1019.3 H 152.41"
         inkscape:connector-curvature="0"
         style="fill:none;stroke:#7b7b7b"
         id="path4408" />
      <path
         d="M 186.84,1015.8 H 152.41"
         inkscape:connector-curvature="0"
         style="fill:none;stroke:#7b7b7b"
         id="path4410" />
      <path
         d="M 222.26,973.26 H 152.41"
         inkscape:connector-curvature="0"
         style="fill:none;stroke:#000000"
         id="path4412" />
      <path
         d="M 222.09,1008.7 H 152.22"
         inkscape:connector-curvature="0"
         style="fill:none;stroke:#000000"
         id="path4414" />
      <path
         d="M 186.84,1001.6 H 152.41"
         inkscape:connector-curvature="0"
         style="fill:none;stroke:#7b7b7b"
         id="path4416" />
      <path
         d="M 186.84,1005.1 H 152.41"
         inkscape:connector-curvature="0"
         style="fill:none;stroke:#7b7b7b"
         id="path4418" />
      <path
         d="M 186.84,998.06 H 152.41"
         inkscape:connector-curvature="0"
         style="fill:none;stroke:#7b7b7b"
         id="path4420" />
      <path
         d="M 186.84,994.52 H 152.41"
         inkscape:connector-curvature="0"
         style="fill:none;stroke:#7b7b7b"
         id="path4422" />
      <path
         d="M 204.55,990.98 H 152.4"
         inkscape:connector-curvature="0"
         style="fill:none;stroke:#000000"
         id="path4424" />
      <path
         d="M 186.84,987.43 H 152.41"
         inkscape:connector-curvature="0"
         style="fill:none;stroke:#7b7b7b"
         id="path4426" />
      <path
         d="M 186.84,976.8 H 152.41"
         inkscape:connector-curvature="0"
         style="fill:none;stroke:#7b7b7b"
         id="path4428" />
      <path
         d="M 186.84,983.89 H 152.41"
         inkscape:connector-curvature="0"
         style="fill:none;stroke:#7b7b7b"
         id="path4430" />
      <path
         d="M 186.84,980.34 H 152.41"
         inkscape:connector-curvature="0"
         style="fill:none;stroke:#7b7b7b"
         id="path4432" />
      <path
         d="M 222.26,937.83 H 152.41"
         inkscape:connector-curvature="0"
         style="fill:none;stroke:#000000"
         id="path4434" />
      <path
         d="M 222.09,973.26 H 152.22"
         inkscape:connector-curvature="0"
         style="fill:none;stroke:#000000"
         id="path4436" />
      <path
         d="M 186.84,966.17 H 152.41"
         inkscape:connector-curvature="0"
         style="fill:none;stroke:#7b7b7b"
         id="path4438" />
      <path
         d="M 186.84,969.71 H 152.41"
         inkscape:connector-curvature="0"
         style="fill:none;stroke:#7b7b7b"
         id="path4440" />
      <path
         d="M 186.84,962.63 H 152.41"
         inkscape:connector-curvature="0"
         style="fill:none;stroke:#7b7b7b"
         id="path4442" />
      <path
         d="M 186.84,959.09 H 152.41"
         inkscape:connector-curvature="0"
         style="fill:none;stroke:#7b7b7b"
         id="path4444" />
      <path
         d="M 204.55,955.54 H 152.4"
         inkscape:connector-curvature="0"
         style="fill:none;stroke:#000000"
         id="path4446" />
      <path
         d="M 186.84,952 H 152.41"
         inkscape:connector-curvature="0"
         style="fill:none;stroke:#7b7b7b"
         id="path4448" />
      <path
         d="M 186.84,941.37 H 152.41"
         inkscape:connector-curvature="0"
         style="fill:none;stroke:#7b7b7b"
         id="path4450" />
      <path
         d="M 186.84,948.46 H 152.41"
         inkscape:connector-curvature="0"
         style="fill:none;stroke:#7b7b7b"
         id="path4452" />
      <path
         d="M 186.84,944.91 H 152.41"
         inkscape:connector-curvature="0"
         style="fill:none;stroke:#7b7b7b"
         id="path4454" />
      <path
         d="M 222.26,902.4 H 152.41"
         inkscape:connector-curvature="0"
         style="fill:none;stroke:#000000"
         id="path4456" />
      <path
         d="M 222.09,937.83 H 152.22"
         inkscape:connector-curvature="0"
         style="fill:none;stroke:#000000"
         id="path4458" />
      <path
         d="M 186.84,930.74 H 152.41"
         inkscape:connector-curvature="0"
         style="fill:none;stroke:#7b7b7b"
         id="path4460" />
      <path
         d="M 186.84,934.28 H 152.41"
         inkscape:connector-curvature="0"
         style="fill:none;stroke:#7b7b7b"
         id="path4462" />
      <path
         d="M 186.84,927.2 H 152.41"
         inkscape:connector-curvature="0"
         style="fill:none;stroke:#7b7b7b"
         id="path4464" />
      <path
         d="M 186.84,923.66 H 152.41"
         inkscape:connector-curvature="0"
         style="fill:none;stroke:#7b7b7b"
         id="path4466" />
      <path
         d="M 204.55,920.11 H 152.4"
         inkscape:connector-curvature="0"
         style="fill:none;stroke:#000000"
         id="path4468" />
      <path
         d="M 186.84,916.57 H 152.41"
         inkscape:connector-curvature="0"
         style="fill:none;stroke:#7b7b7b"
         id="path4470" />
      <path
         d="M 186.84,905.94 H 152.41"
         inkscape:connector-curvature="0"
         style="fill:none;stroke:#7b7b7b"
         id="path4472" />
      <path
         d="M 186.84,913.03 H 152.41"
         inkscape:connector-curvature="0"
         style="fill:none;stroke:#7b7b7b"
         id="path4474" />
      <path
         d="M 186.84,909.48 H 152.41"
         inkscape:connector-curvature="0"
         style="fill:none;stroke:#7b7b7b"
         id="path4476" />
      <path
         d="M 222.26,866.96 H 152.41"
         inkscape:connector-curvature="0"
         style="fill:none;stroke:#000000"
         id="path4478" />
      <path
         d="M 222.09,902.4 H 152.22"
         inkscape:connector-curvature="0"
         style="fill:none;stroke:#000000"
         id="path4480" />
      <path
         d="M 186.84,895.3 H 152.41"
         inkscape:connector-curvature="0"
         style="fill:none;stroke:#7b7b7b"
         id="path4482" />
      <path
         d="M 186.84,898.85 H 152.41"
         inkscape:connector-curvature="0"
         style="fill:none;stroke:#7b7b7b"
         id="path4484" />
      <path
         d="M 186.84,891.77 H 152.41"
         inkscape:connector-curvature="0"
         style="fill:none;stroke:#7b7b7b"
         id="path4486" />
      <path
         d="M 186.84,888.22 H 152.41"
         inkscape:connector-curvature="0"
         style="fill:none;stroke:#7b7b7b"
         id="path4488" />
      <path
         d="M 204.55,884.68 H 152.4"
         inkscape:connector-curvature="0"
         style="fill:none;stroke:#000000"
         id="path4490" />
      <path
         d="M 186.84,881.14 H 152.41"
         inkscape:connector-curvature="0"
         style="fill:none;stroke:#7b7b7b"
         id="path4492" />
      <path
         d="M 186.84,870.51 H 152.41"
         inkscape:connector-curvature="0"
         style="fill:none;stroke:#7b7b7b"
         id="path4494" />
      <path
         d="M 186.84,877.59 H 152.41"
         inkscape:connector-curvature="0"
         style="fill:none;stroke:#7b7b7b"
         id="path4496" />
      <path
         d="M 186.84,874.04 H 152.41"
         inkscape:connector-curvature="0"
         style="fill:none;stroke:#7b7b7b"
         id="path4498" />
      <text
         xml:space="preserve"
         x="138.42546"
         y="1192.4402"
         sodipodi:linespacing="125%"
         style="font-size:40px;line-height:125%;letter-spacing:0px;word-spacing:0px;fill:#000000;font-family:Sans"
         id="text4500"><tspan
           y="1192.4402"
           style="font-size:14px"
           x="138.42546"
           sodipodi:role="line"
           id="tspan4502">0</tspan></text>
      <text
         xml:space="preserve"
         x="138.10759"
         y="1156.5251"
         sodipodi:linespacing="125%"
         style="font-size:40px;line-height:125%;letter-spacing:0px;word-spacing:0px;fill:#000000;font-family:Sans"
         id="text4504"><tspan
           y="1156.5251"
           style="font-size:14px"
           x="138.10759"
           sodipodi:role="line"
           id="tspan4506">1</tspan></text>
      <text
         xml:space="preserve"
         x="138.51091"
         y="1121.3861"
         sodipodi:linespacing="125%"
         style="font-size:40px;line-height:125%;letter-spacing:0px;word-spacing:0px;fill:#000000;font-family:Sans"
         id="text4508"><tspan
           y="1121.3861"
           style="font-size:14px"
           x="138.51091"
           sodipodi:role="line"
           id="tspan4510">2</tspan></text>
      <text
         xml:space="preserve"
         x="138.44939"
         y="1085.9735"
         sodipodi:linespacing="125%"
         style="font-size:40px;line-height:125%;letter-spacing:0px;word-spacing:0px;fill:#000000;font-family:Sans"
         id="text4512"><tspan
           y="1085.9735"
           style="font-size:14px"
           x="138.44939"
           sodipodi:role="line"
           id="tspan4514">3</tspan></text>
      <text
         xml:space="preserve"
         x="138.28191"
         y="1050.9061"
         sodipodi:linespacing="125%"
         style="font-size:40px;line-height:125%;letter-spacing:0px;word-spacing:0px;fill:#000000;font-family:Sans"
         id="text4516"><tspan
           y="1050.9061"
           style="font-size:14px"
           x="138.28191"
           sodipodi:role="line"
           id="tspan4518">4</tspan></text>
      <text
         xml:space="preserve"
         x="138.40154"
         y="1014.957"
         sodipodi:linespacing="125%"
         style="font-size:40px;line-height:125%;letter-spacing:0px;word-spacing:0px;fill:#000000;font-family:Sans"
         id="text4520"><tspan
           y="1014.957"
           style="font-size:14px"
           x="138.40154"
           sodipodi:role="line"
           id="tspan4522">5</tspan></text>
      <text
         xml:space="preserve"
         x="138.25456"
         y="944.16943"
         sodipodi:linespacing="125%"
         style="font-size:40px;line-height:125%;letter-spacing:0px;word-spacing:0px;fill:#000000;font-family:Sans"
         id="text4524"><tspan
           y="944.16943"
           style="font-size:14px"
           x="138.25456"
           sodipodi:role="line"
           id="tspan4526">7</tspan></text>
      <text
         xml:space="preserve"
         x="138.42546"
         y="908.94824"
         sodipodi:linespacing="125%"
         style="font-size:40px;line-height:125%;letter-spacing:0px;word-spacing:0px;fill:#000000;font-family:Sans"
         id="text4528"><tspan
           y="908.94824"
           style="font-size:14px"
           x="138.42546"
           sodipodi:role="line"
           id="tspan4530">8</tspan></text>
      <text
         xml:space="preserve"
         x="138.47331"
         y="873.53571"
         sodipodi:linespacing="125%"
         style="font-size:40px;line-height:125%;letter-spacing:0px;word-spacing:0px;fill:#000000;font-family:Sans"
         id="text4532"><tspan
           y="873.53571"
           style="font-size:14px"
           x="138.47331"
           sodipodi:role="line"
           id="tspan4534">9</tspan></text>
      <text
         xml:space="preserve"
         x="133.65349"
         y="834.71558"
         sodipodi:linespacing="125%"
         style="font-size:40px;line-height:125%;letter-spacing:0px;word-spacing:0px;fill:#000000;font-family:Sans"
         id="text4536"><tspan
           y="834.71558"
           style="font-size:14px"
           x="133.65349"
           sodipodi:role="line"
           id="tspan4538">10</tspan></text>
      <path
         d="M 222.09,831.53 H 152.24"
         inkscape:connector-curvature="0"
         style="fill:none;stroke:#000000"
         id="path4540" />
      <path
         d="M 186.66,859.87 H 152.23"
         inkscape:connector-curvature="0"
         style="fill:none;stroke:#7b7b7b"
         id="path4542" />
      <path
         d="M 186.66,863.41 H 152.23"
         inkscape:connector-curvature="0"
         style="fill:none;stroke:#7b7b7b"
         id="path4544" />
      <path
         d="M 186.66,856.33 H 152.23"
         inkscape:connector-curvature="0"
         style="fill:none;stroke:#7b7b7b"
         id="path4546" />
      <path
         d="M 186.66,852.79 H 152.23"
         inkscape:connector-curvature="0"
         style="fill:none;stroke:#7b7b7b"
         id="path4548" />
      <path
         d="M 204.38,849.24 H 152.23"
         inkscape:connector-curvature="0"
         style="fill:none;stroke:#000000"
         id="path4550" />
      <path
         d="M 186.66,845.7 H 152.23"
         inkscape:connector-curvature="0"
         style="fill:none;stroke:#7b7b7b"
         id="path4552" />
      <path
         d="M 186.66,835.07 H 152.23"
         inkscape:connector-curvature="0"
         style="fill:none;stroke:#7b7b7b"
         id="path4554" />
      <path
         d="M 186.66,842.16 H 152.23"
         inkscape:connector-curvature="0"
         style="fill:none;stroke:#7b7b7b"
         id="path4556" />
      <path
         d="M 186.66,838.61 H 152.23"
         inkscape:connector-curvature="0"
         style="fill:none;stroke:#7b7b7b"
         id="path4558" />
    </g>
  </g>
  <metadata
     id="metadata275">
    <rdf:RDF>
      <cc:Work>
        <dc:format>image/svg+xml</dc:format>
        <dc:type
           rdf:resource="http://purl.org/dc/dcmitype/StillImage" />
        <cc:license
           rdf:resource="http://creativecommons.org/licenses/publicdomain/" />
        <dc:publisher>
          <cc:Agent
             rdf:about="http://openclipart.org/">
            <dc:title>Openclipart</dc:title>
          </cc:Agent>
        </dc:publisher>
        <dc:title></dc:title>
      </cc:Work>
      <cc:License
         rdf:about="http://creativecommons.org/licenses/publicdomain/">
        <cc:permits
           rdf:resource="http://creativecommons.org/ns#Reproduction" />
        <cc:permits
           rdf:resource="http://creativecommons.org/ns#Distribution" />
        <cc:permits
           rdf:resource="http://creativecommons.org/ns#DerivativeWorks" />
      </cc:License>
    </rdf:RDF>
  </metadata>
</svg>
